--- 
recorded_with: VCR 2.1.0
http_interactions: 
- request: 
    method: get
    uri: http://agent%40zendesk.com:123456@dev.localhost:3000/api/v2/users.json?page=3&per_page=1
    body: 
      string: ""
    headers: 
      User-Agent: 
      - Zendesk API 0.0.1
      Accept: 
      - application/json
  response: 
    status: 
      code: 200
      message: OK
    headers: 
      Server: 
      - thin 1.2.7 codename No Hup
      Etag: 
      - "\"976b99b9e93063e5402c708cd6ebe676\""
      Content-Type: 
      - application/json; charset=utf-8
      Connection: 
      - keep-alive
      X-Zendesk-Api-Version: 
      - v2
      X-Runtime: 
      - "399"
      Content-Length: 
      - "728"
      Cache-Control: 
      - private, max-age=0, must-revalidate
    body: 
      string: "{\"users\":[{\"verified\":true,\"role\":\"agent\",\"active\":true,\"time_zone\":\"Copenhagen\",\"url\":\"http://dev.localhost:3000/api/v2/users/22.json\",\"external_id\":null,\"email\":\"sally.agent.1@example.org\",\"phone\":null,\"organization_id\":null,\"moderator\":false,\"notes\":null,\"alias\":null,\"tags\":[],\"last_login_at\":null,\"shared\":false,\"created_at\":\"2012-04-09T23:08:52Z\",\"details\":null,\"only_private_comments\":false,\"name\":\"Sally Agent 1\",\"signature\":null,\"id\":22,\"updated_at\":\"2012-04-09T23:08:52Z\",\"locale_id\":null,\"custom_role_id\":null,\"ticket_restriction\":null,\"photo\":null}],\"count\":7,\"previous_page\":\"http://dev.localhost:3000/api/v2/users.json?page=2&per_page=1\",\"next_page\":\"http://dev.localhost:3000/api/v2/users.json?page=4&per_page=1\"}"
    http_version: 
  recorded_at: Mon, 23 Apr 2012 22:19:46 GMT
- request: 
    method: get
    uri: http://agent%40zendesk.com:123456@dev.localhost:3000/api/v2/users.json?page=2&per_page=1
    body: 
      string: ""
    headers: 
      User-Agent: 
      - Zendesk API 0.0.1
      Accept: 
      - application/json
  response: 
    status: 
      code: 200
      message: OK
    headers: 
      Server: 
      - thin 1.2.7 codename No Hup
      Etag: 
      - "\"f045e20aff3e10e8fa8ee9d1a99694d1\""
      Content-Type: 
      - application/json; charset=utf-8
      Connection: 
      - keep-alive
      X-Zendesk-Api-Version: 
      - v2
      X-Runtime: 
      - "368"
      Content-Length: 
      - "755"
      Cache-Control: 
      - private, max-age=0, must-revalidate
    body: 
      string: "{\"users\":[{\"verified\":true,\"role\":\"admin\",\"active\":true,\"time_zone\":\"Pacific Time (US & Canada)\",\"url\":\"http://dev.localhost:3000/api/v2/users/7.json\",\"external_id\":null,\"email\":\"agent@zendesk.com\",\"phone\":null,\"organization_id\":7,\"moderator\":true,\"notes\":null,\"alias\":null,\"tags\":[],\"last_login_at\":\"2012-04-23T22:01:55Z\",\"shared\":false,\"created_at\":\"2012-04-09T23:08:36Z\",\"details\":null,\"only_private_comments\":false,\"name\":\"Agent Extraordinaire\",\"signature\":null,\"id\":7,\"updated_at\":\"2012-04-09T23:08:36Z\",\"locale_id\":null,\"custom_role_id\":null,\"ticket_restriction\":null,\"photo\":null}],\"count\":7,\"previous_page\":\"http://dev.localhost:3000/api/v2/users.json?page=1&per_page=1\",\"next_page\":\"http://dev.localhost:3000/api/v2/users.json?page=3&per_page=1\"}"
    http_version: 
  recorded_at: Mon, 23 Apr 2012 22:20:08 GMT
